Tidy Tuesday: Week 23
…
  step_scale(mps) #scaling mps
# Create workflow
D.wflow <- workflow() %>% 
  add_model(lr.mod) %>% 
  add_recipe(D.rec)
# Fit model to training data
D.fit <- 
  D.wflow %>% 
  fit(data = train_data)
# evaluate
D.fit %>% 
  extract_fit_parsnip() %>% 
  tidy()

## # A tibble: 22 × 5
##    term           estimate std.error statistic  p.value
##    <chr>             <dbl>     <dbl>     <dbl>    <dbl>
##  1 (Intercept)     8.60     0.353      24.4    1.04e-54
##  2 time_s          0.00667  0.000651   10.3    4.02e-19
##  3 track_length_m  0.457    0.0364     12.5    2.72e-25
##  4 number_laps    -0.200    0.0187    -10.7    2.20e-20
##  5 avg_time_lap   -0.268    0.00780   -34.4    4.26e-74
##  6 rank_X2         0.00420  0.0869      0.0484 9.61e- 1
##  7 rank_X3         0.0162   0.0832      0.195  8.46e- 1
##  8 rank_X3.5      -0.0201   0.153      -0.131  8.96e- 1
##  9 rank_X4        -0.0229   0.0875     -0.262  7.94e- 1
## 10 rank_X5         0.00788  0.0872      0.0903 9.28e- 1
## # … with 12 more rows
…
## # A tibble: 1 × 5
##   term        estimate std.error statistic   p.value
##   <chr>          <dbl>     <dbl>     <dbl>     <dbl>
## 1 (Intercept)    0.457   0.00514      88.9 1.57e-147

# RMSE
predict(N.train.fit, train_data)

## # A tibble: 176 × 1
##    .pred
##    <dbl>
##  1 0.457
##  2 0.457
##  3 0.457
##  4 0.457
##  5 0.457
##  6 0.457
##  7 0.457
##  8 0.457
##  9 0.457
## 10 0.457
## # … with 166 more rows

N.train.aug <- augment(N.train.fit, train_data)
N.train.aug %>% select(mps, .pred) 

## # A tibble: 176 × 2
##      mps .pred
##    <dbl> <dbl>
##  1 0.411 0.457
##  2 0.395 0.457
##  3 0.394 0.457
##  4 0.393 0.457
##  5 0.391 0.457
##  6 0.390 0.457
##  7 0.387 0.457
##  8 0.387 0.457
##  9 0.383 0.457
## 10 0.382 0.457
## # … with 166 more rows
N.train.aug %>% rmse(truth = mps, .pred)

## # A tibble: 1 × 3
##   .metric .estimator .estimate
##   <chr>   <chr>          <dbl>
## 1 rmse    standard      0.0680

# RMSE = 0.06801068 

Null model testing

# fitting
predict(N.train.fit, test_data)

## # A tibble: 77 × 1
##    .pred
##    <dbl>
##  1 0.457
##  2 0.457
##  3 0.457
##  4 0.457
##  5 0.457
##  6 0.457
##  7 0.457
##  8 0.457
##  9 0.457
## 10 0.457
## # … with 67 more rows

N.test.aug <- augment(N.train.fit, test_data) 
N.test.aug %>% select(mps, .pred) 

## # A tibble: 77 × 2
##      mps .pred
##    <dbl> <dbl>
##  1 0.456 0.457
##  2 0.452 0.457
##  3 0.437 0.457
##  4 0.434 0.457
##  5 0.412 0.457
##  6 0.395 0.457
##  7 0.383 0.457
##  8 0.380 0.457
##  9 0.377 0.457
## 10 0.468 0.457
## # … with 67 more rows
…
## [1] 4

ncores = 4
cl <- makePSOCKcluster(ncores)
registerDoParallel(cl)
tree_grid <- grid_regular(cost_complexity(),
                          tree_depth(),
                          levels = 5)
# tuning
tree_res <- tree.wflow %>% 
  tune_grid(resamples = folds, grid = tree_grid)
tree_res %>% collect_metrics()

## # A tibble: 50 × 8
##    cost_complexity tree_depth .metric .estimator  mean     n std_err .config    
##              <dbl>      <int> <chr>   <chr>      <dbl> <int>   <dbl> <chr>      
##  1    0.0000000001          1 rmse    standard   0.614    25  0.0136 Preprocess…
##  2    0.0000000001          1 rsq     standard   0.632    25  0.0106 Preprocess…
##  3    0.0000000178          1 rmse    standard   0.614    25  0.0136 Preprocess…
##  4    0.0000000178          1 rsq     standard   0.632    25  0.0106 Preprocess…
##  5    0.00000316            1 rmse    standard   0.614    25  0.0136 Preprocess…
##  6    0.00000316            1 rsq     standard   0.632    25  0.0106 Preprocess…
##  7    0.000562              1 rmse    standard   0.614    25  0.0136 Preprocess…
##  8    0.000562              1 rsq     standard   0.632    25  0.0106 Preprocess…
##  9    0.1                   1 rmse    standard   0.614    25  0.0136 Preprocess…
## 10    0.1                   1 rsq     standard   0.632    25  0.0106 Preprocess…
## # … with 40 more rows
…
